578:255.00:1.6359291076660156
578:74.16:1.8448748588562012
576:62.33:2.053741931915283
594:193.09:2.266662120819092
589:63.81:2.475560188293457
586:72.76:2.6844639778137207
584:77.31:2.8931870460510254
576:37.02:3.102083921432495
580:107.64:3.315164089202881
570:22.06:3.524066925048828
572:89.90:3.7329599857330322
567:47.83:3.941835880279541
570:95.09:4.150728225708008
566:54.20:4.359649896621704
572:115.56:4.572563171386719
562:19.78:4.7814319133758545
567:106.42:4.990408182144165
560:35.59:5.199241876602173
566:112.49:5.4081809520721436
563:62.21:5.616847991943359
564:85.61:5.829949140548706
561:61.89:6.038834810256958
562:85.21:6.247741937637329
559:61.49:6.45696496963501
562:97.63:6.665549039840698
548:0.00:6.874403953552246
560:144.36:7.087367057800293
559:75.50:7.296278953552246
553:43.11:7.5051350593566895
548:43.59:7.714043140411377
557:128.25:7.927001953125
543:0.00:8.131831884384155
550:110.98:8.344817161560059
546:49.40:8.55365800857544
554:122.22:8.762593984603882
551:61.69:8.971431016921997
546:46.27:9.180335998535156
548:85.94:9.393226861953735
544:50.59:9.60214900970459
550:110.47:9.810770034790039
547:60.50:10.01993203163147
548:83.30:10.228880167007446
542:40.46:10.437532186508179
546:97.95:10.650584936141968
540:39.41:10.859537124633789
541:77.69:11.068408012390137
539:60.28:11.277328968048096
545:109.40:11.490211963653564
544:72.24:11.699127912521362
545:84.44:11.907994985580444
537:28.94:12.116708040237427
548:141.23:12.325846910476685
537:14.32:12.534727096557617
541:97.73:12.743640899658203
543:90.10:12.9565269947052
542:73.84:13.165435075759888
542:79.62:13.37430191040039
540:67.46:13.583235025405884
538:65.72:13.791965007781982
537:70.29:14.005032062530518
538:82.30:14.213907241821289
536:64.87:14.422820091247559
537:82.07:14.631711959838867
537:77.30:14.840605974197388
533:52.42:15.049520015716553
536:92.62:15.262402057647705
542:115.52:15.471374034881592
540:72.03:15.68002200126648
535:51.28:15.88908576965332
538:96.79:16.098088026046753
533:49.94:16.306930780410767
537:101.69:16.519840002059937
535:68.64:16.728713989257812
535:79.47:16.937628030776978
531:54.58:17.146589040756226
536:107.36:17.359421014785767
531:50.13:17.568297863006592
530:70.16:17.77726101875305
535:107.29:17.986132860183716
523:5.96:18.194984912872314
530:112.54:18.407937049865723
532:89.21:18.6127610206604
531:72.85:18.825619220733643
529:65.75:19.034619092941284
529:76.43:19.243484020233154
530:83.04:19.45239281654358
526:52.93:19.66133189201355
528:86.52:19.874200105667114
526:63.81:20.083068132400513
529:93.34:20.291842937469482
529:78.08:20.500892162322998
528:72.06:20.70993995666504
529:83.83:20.91873812675476
518:9.72:21.127323150634766
529:135.93:21.340340852737427
522:35.22:21.54945993423462
518:46.51:21.75829815864563
524:104.95:21.9711971282959
523:67.85:22.180060148239136
520:54.35:22.38897204399109
529:126.63:22.597919940948486
521:29.96:22.80682682991028
532:140.85:23.019767999649048
528:58.94:23.224483966827393
524:54.78:23.43744993209839
525:81.99:23.6462619304657
527:89.64:23.855294942855835
522:48.05:24.064061164855957
526:99.27:24.273087978363037
526:78.80:24.48602318763733
519:35.01:24.694861888885498
525:109.04:24.903820991516113
522:59.36:25.11257314682007
520:62.47:25.321635007858276
528:123.28:25.534493923187256
523:50.65:25.74336814880371
522:70.44:25.95226216316223
520:63.20:26.161192893981934
526:111.40:26.37011194229126
510:0.00:26.578973054885864
516:100.24:26.791844129562378
512:44.34:27.000753164291382
524:140.21:27.2097110748291
518:40.78:27.41858410835266
527:128.47:27.631305932998657
518:25.58:27.836385011672974
520:84.75:28.04925513267517
523:93.41:28.25817108154297
522:71.79:28.467108011245728
524:89.71:28.67595601081848
523:73.26:28.88488221168518
524:84.91:29.09779715538025
523:73.63:29.315496921539307
523:78.99:29.521645069122314
522:72.88:29.72451400756836
519:59.36:29.93338418006897
528:131.59:30.146491050720215
519:28.66:30.355207204818726
524:106.76:30.564072132110596
527:100.01:30.773036003112793
514:3.05:30.981842041015625
518:95.29:31.190621852874756
513:43.41:31.403727054595947
514:75.42:31.612487077713013
532:183.53:31.821517944335938
514:0.00:32.030357837677
526:146.01:32.243263959884644
514:8.89:32.44816303253174
522:121.07:32.66109800338745
519:61.11:32.869953870773315
526:120.73:33.078912019729614
515:15.65:33.28781294822693
520:103.87:33.50067496299744
516:53.10:33.70955681800842
522:111.45:33.91838097572327
517:49.23:34.127155780792236
522:106.51:34.33629512786865
522:80.85:34.54517912864685
522:81.01:34.75405406951904
520:68.60:34.96695017814636
515:47.68:35.17586803436279
516:79.77:35.38480877876282
521:106.04:35.59368014335632
523:92.95:35.80257296562195
516:38.83:36.01547884941101
527:144.16:36.22434711456299
527:87.56:36.43329191207886
508:0.00:36.64214587211609
516:116.57:36.85507392883301
524:125.70:37.06395411491394
511:3.02:37.26865601539612
522:139.01:37.48184895515442
513:25.99:37.69047284126282
524:141.44:37.89947700500488
512:9.56:38.108307123184204
519:115.32:38.32148003578186
517:66.79:38.5302209854126
518:83.45:38.739121198654175
516:65.82:38.94805192947388
518:88.73:39.1569709777832
518:78.49:39.365845918655396
517:72.30:39.57879400253296
515:64.98:39.78751087188721
515:75.31:39.99653911590576
517:87.87:40.205451011657715
514:58.82:40.41438293457031
520:111.92:40.62721300125122
513:37.20:40.83606004714966
521:123.45:41.04507398605347
519:69.77:41.253957986831665
523:105.34:41.466869831085205
516:40.89:41.671732902526855
522:114.74:41.884676933288574
510:8.69:42.09351396560669
520:133.14:42.30249094963074
511:25.33:42.51135206222534
519:121.78:42.72425317764282
520:86.95:42.93313980102539
515:50.54:43.14200401306152
515:76.35:43.35072088241577
517:88.91:43.55984711647034
514:59.86:43.76884198188782
516:87.85:43.97764492034912
515:71.33:44.190521001815796
516:82.77:44.399497985839844
513:58.86:44.60813307762146
514:80.56:44.81720590591431
513:69.15:45.02614116668701
514:80.55:45.23901104927063
511:56.63:45.4479238986969
514:90.79:45.65683388710022
511:56.57:45.86580014228821
521:134.65:46.078662157058716
512:26.81:46.28357696533203
517:104.50:46.496439933776855
528:147.99:46.70537209510803
500:0.00:46.914287090301514
508:109.83:47.12317204475403
512:93.70:47.332070112228394
514:85.62:47.54490423202515
518:100.40:47.753873109817505
514:54.79:47.96284008026123
517:94.21:48.17164397239685
516:72.54:48.3805410861969
514:65.21:48.58943510055542
516:88.05:48.80231285095215
512:52.73:49.01121497154236
516:98.35:49.220146894454956
513:59.00:49.42902398109436
515:86.96:49.63795185089111
512:57.90:49.85081911087036
510:60.80:50.05973696708679
514:96.05:50.26862716674805
512:62.94:50.47753691673279
515:91.99:50.686440229415894
513:64.04:50.89529800415039
520:118.22:51.10813617706299
517:63.42:51.31711006164551
505:3.89:51.525962829589844
523:178.20:51.73496103286743
513:22.92:51.94383883476257
518:105.83:52.156697034835815
510:30.04:52.365607023239136
516:108.73:52.57465481758118
517:84.16:52.78340005874634
513:54.00:52.99233818054199
513:74.59:53.201196908950806
514:80.84:53.414106130599976
516:88.22:53.623026847839355
515:71.69:53.83180522918701
516:83.14:54.04086899757385
514:65.49:54.249743938446045
515:82.06:54.46267104148865
515:76.94:54.67148685455322
515:76.96:54.880455017089844
520:108.35:55.089359998703
509:13.76:55.29822778701782
512:89.09:55.5071280002594
511:67.37:55.72001600265503
513:84.98:55.92893099784851
510:55.90:56.13781690597534
515:102.56:56.34673595428467
523:127.08:56.55963206291199
510:4.43:56.76450991630554
510:71.39:56.977417945861816
518:121.42:57.18633794784546
511:36.45:57.395249128341675
515:97.49:57.60389709472656
510:45.63:57.813002824783325
516:108.85:58.02594614028931
510:40.44:58.23483991622925
517:115.09:58.44369602203369
514:60.31:58.65260100364685
516:88.30:58.8615300655365
515:71.77:59.0743989944458
515:76.95:59.28328013420105
515:76.97:59.49220013618469
514:70.73:59.70111799240112
512:63.36:59.91002106666565
509:54.86:60.11867308616638
513:95.22:60.331783056259155
512:68.37:60.5408570766449
511:67.22:60.749614000320435
510:66.06:60.95857000350952
506:46.14:61.167389154434204
514:116.55:61.38034701347351
507:31.65:61.58917713165283
509:80.01:61.7980740070343
518:126.00:62.00703001022339
516:67.20:62.21592593193054
515:71.29:62.42479991912842
507:26.42:62.63766813278198
514:111.21:62.84662914276123
514:75.22:63.055503129959106
516:87.75:63.264405965805054
510:39.93:63.47340989112854
516:108.31:63.68615484237671
515:71.19:63.895079135894775
516:82.64:64.10373020172119
515:71.26:64.31290006637573
513:63.91:64.5218710899353
515:86.72:64.73070192337036
517:88.98:64.94357800483704
512:47.41:65.15246295928955
518:110.72:65.3612539768219
510:29.78:65.57029485702515
520:133.57:65.78325200080872
509:13.25:65.99207901954651
519:132.46:66.20103001594543
526:125.09:66.41000390052795
511:0.00:66.61859917640686
515:97.37:66.8277108669281
512:58.02:67.03663778305054
518:111.03:67.24950385093689
510:30.08:67.45843696594238
514:96.24:67.6672911643982
517:94.47:67.87620711326599
516:72.80:68.08509516716003
514:65.46:68.29797697067261
516:88.30:68.50660181045532
511:46.73:68.71580004692078
516:103.73:68.92471289634705
514:65.50:69.1335871219635
514:75.80:69.34254598617554
514:75.81:69.55538201332092
510:50.77:69.76426601409912
518:121.39:69.97323989868164
515:61.46:70.18207311630249
516:83.22:70.39101195335388
513:59.31:70.60369396209717
514:81.01:70.81272912025452
517:94.67:71.02172994613647
515:66.73:71.23056197166443
523:127.29:71.44352293014526
497:0.00:71.64832186698914
512:150.53:71.86137390136719
513:79.80:72.07017588615417
512:68.38:72.27904105186462
517:104.82:72.48813104629517
514:60.32:72.69662499427795
509:44.50:72.90977096557617
517:120.21:73.1184868812561
514:60.29:73.32758688926697
513:69.49:73.536456823349
515:87.15:73.74539303779602
509:39.33:73.95427799224854
515:107.65:74.16719722747803
514:70.54:74.37604093551636
515:81.96:74.58500003814697
514:70.57:74.79390501976013
516:88.25:75.00281500816345
515:71.72:75.21573901176453
518:95.71:75.42452812194824
513:48.98:75.64732599258423
517:99.80:75.84237790107727
516:72.98:76.0513219833374
515:71.91:76.2601478099823
516:83.36:76.47307896614075
514:65.71:76.6819760799408
519:107.37:76.8906660079956
509:19.06:77.09988021850586
523:158.24:77.3126859664917
512:17.24:77.52156686782837
510:61.43:77.73044180870056
514:96.68:77.93937706947327
510:51.06:78.14828896522522
518:121.68:78.36118197441101
512:42.96:78.5660650730133
513:80.10:78.77894282341003
514:81.20:78.9878740310669
513:69.79:79.1967339515686
514:81.19:79.40570116043091
513:69.78:79.61446499824524
512:68.65:79.82746410369873
513:80.02:80.03633308410645
515:87.39:80.24537706375122
513:64.59:80.45415592193604
511:62.35:80.66307497024536
516:103.90:80.8759651184082
513:59.40:81.08484077453613
512:68.58:81.29377508163452
513:79.95:81.50266003608704
510:56.02:81.71157002449036
513:90.15:81.920480966568
501:0.00:82.12937116622925
506:92.31:82.34225821495056
520:154.17:82.55113792419434
504:0.00:82.76007008552551
517:145.53:82.96863889694214
514:59.95:83.17786002159119
517:94.21:83.39072895050049
516:72.54:83.59973096847534
513:58.95:83.80854916572571
513:74.38:84.01742196083069
514:80.63:84.22637891769409
513:69.22:84.43906712532043
513:74.35:84.64812994003296
511:61.82:84.8570327758789
514:90.83:85.06598901748657
513:69.14:85.27487397193909
513:74.27:85.48377299308777
513:74.25:85.69663619995117
509:49.21:85.90556788444519
513:94.72:86.11451411247253
512:67.87:86.32327222824097
511:66.72:86.53225684165955
517:109.39:86.7451171875
507:15.97:86.95402598381042
517:129.88:87.16277599334717
504:0.00:87.37159895896912
516:138.87:87.58077883720398
518:89.77:87.78940105438232
504:0.00:87.99852514266968
513:120.01:88.21151781082153
511:61.24:88.42034196853638
516:102.78:88.62907004356384
507:20.77:88.83815217018127
519:142.07:89.05102610588074
512:36.53:89.25972294807434
514:85.08:89.46883702278137
512:62.27:89.67766404151917
513:78.79:89.8869149684906
513:73.63:90.09524607658386
514:79.87:90.30835294723511
511:55.95:90.51720905303955
514:90.11:90.72624206542969
515:80.94:90.93515419960022
510:44.52:91.14404487609863
515:101.47:91.35693001747131
