449:1.6280078887939453
441:1.9395248889923096
442:2.2510359287261963
443:2.561997175216675
444:2.873283863067627
443:3.184575080871582
448:3.4919188022613525
443:3.803130865097046
428:4.11435079574585
448:4.425649881362915
447:4.73666787147522
446:5.048161029815674
447:5.3594560623168945
448:5.670727968215942
447:5.981990814208984
451:6.289271116256714
445:6.6005449295043945
439:6.911810874938965
462:7.223114013671875
445:7.534535884857178
452:7.845645904541016
455:8.156920194625854
458:8.468100786209106
458:8.77943205833435
460:9.086598873138428
462:9.397987127304077
462:9.709295988082886
475:10.020557880401611
456:10.331811904907227
472:10.642934083938599
468:10.954255819320679
468:11.26559591293335
469:11.576848983764648
471:11.888113021850586
471:12.195387840270996
479:12.50636601448059
468:12.817944765090942
464:13.129225969314575
469:13.440514087677002
477:13.751770973205566
480:14.063042163848877
479:14.374291896820068
483:14.685563802719116
482:14.992824077606201
486:15.304005861282349
488:15.615396976470947
498:15.92665982246399
487:16.23778009414673
490:16.549165725708008
491:16.860472917556763
492:17.17181706428528
493:17.48309898376465
492:17.794288873672485
496:18.10159206390381
494:18.4127779006958
495:18.72409987449646
492:19.03539490699768
512:19.346646070480347
491:19.657896041870117
500:19.969197034835815
503:20.280316829681396
503:20.59176802635193
505:20.903015851974487
508:21.210253953933716
505:21.521533966064453
500:21.832797050476074
520:22.144140005111694
499:22.455188989639282
503:22.766629934310913
512:23.077928066253662
505:23.389118909835815
513:23.70041799545288
512:24.007696866989136
516:24.318978786468506
513:24.63028573989868
524:24.941500902175903
504:25.25277590751648
524:25.564034938812256
515:25.875320196151733
519:26.186559915542603
522:26.49783205986023
521:26.809149980545044
523:27.116391897201538
523:27.427778720855713
526:27.738851070404053
518:28.050221920013428
516:28.361512899398804
538:28.672749042510986
520:28.984040021896362
524:29.29527187347412
526:29.60656213760376
529:29.913731813430786
529:30.225144147872925
531:30.536381006240845
530:30.84767198562622
532:31.15897798538208
527:31.470192909240723
548:31.78144097328186
543:32.09273815155029
527:32.403972864151
538:32.71533179283142
534:33.02253007888794
537:33.33384299278259
535:33.64509391784668
538:33.95635986328125
539:34.26766395568848
536:34.57888388633728
531:34.890198945999146
552:35.20142388343811
537:35.51275086402893
537:35.81996178627014
543:36.131250858306885
543:36.44255805015564
542:36.75384306907654
542:37.06516194343567
544:37.37621188163757
544:37.68759512901306
539:37.9988648891449
544:38.31011986732483
530:38.62144684791565
548:38.92866897583008
548:39.239721059799194
548:39.550989866256714
546:39.86249804496765
548:40.1737539768219
546:40.48503494262695
550:40.79631686210632
543:41.1074378490448
540:41.41875100135803
534:41.72614407539368
558:42.03743100166321
546:42.34860706329346
548:42.659974813461304
551:42.971205949783325
550:43.28253483772278
552:43.59376907348633
551:43.904974937438965
548:44.21626400947571
559:44.527519941329956
556:44.834712743759155
555:45.14578890800476
546:45.457271099090576
550:45.768441915512085
553:46.07993292808533
555:46.39116597175598
554:46.70245003700256
556:47.01368975639343
554:47.32497000694275
556:47.63217210769653
553:47.94352579116821
563:48.25475001335144
543:48.566099882125854
561:48.87734603881836
562:49.188600063323975
558:49.50002193450928
558:49.811075925827026
557:50.122114181518555
559:50.42966389656067
558:50.74085783958435
558:51.05225992202759
555:51.36351013183594
567:51.6747567653656
558:51.986061096191406
557:52.29731202125549
557:52.60857796669006
561:52.919830083847046
562:53.231143951416016
560:53.538489818573
562:53.849671840667725
560:54.16092395782471
563:54.47220516204834
562:54.78331184387207
568:55.09471273422241
554:55.40608096122742
578:55.717257022857666
574:56.02854895591736
561:56.33983898162842
565:56.64708685874939
563:56.958393812179565
565:57.2696168422699
563:57.580901861190796
565:57.89208388328552
564:58.20345401763916
560:58.51486396789551
566:58.82579684257507
569:59.13728213310242
551:59.444519996643066
574:59.75580906867981
561:60.06706690788269
567:60.37835192680359
566:60.689635038375854
565:61.00089883804321
567:61.312195777893066
566:61.62339520454407
566:61.9346981048584
570:62.245935916900635
571:62.553256034851074
559:62.864546060562134
560:63.175766944885254
568:63.487098932266235
567:63.798298835754395
569:64.10961103439331
568:64.42088603973389
568:64.7321138381958
568:65.04323506355286
569:65.35066199302673
567:65.66194486618042
575:65.97320508956909
564:66.2844889163971
557:66.59580898284912
559:66.90703392028809
563:67.21822595596313
567:67.52954077720642
569:67.84083676338196
569:68.15211701393127
570:68.45939588546753
571:68.77066588401794
569:69.08194994926453
571:69.39307498931885
563:69.7044529914856
563:70.01570582389832
581:70.32699084281921
577:70.63833975791931
567:70.94951510429382
570:71.25680303573608
567:71.56808495521545
571:71.87944293022156
572:72.19063186645508
571:72.5019121170044
577:72.81315684318542
577:73.12444996833801
584:73.43569374084473
569:73.74687910079956
570:74.05821180343628
577:74.36552286148071
572:74.6768319606781
574:74.98804998397827
572:75.29930591583252
574:75.61056685447693
573:75.92186975479126
572:76.23315000534058
573:76.54440307617188
570:76.855721950531
560:77.1629478931427
578:77.47425580024719
571:77.78536605834961
571:78.09677290916443
574:78.4080400466919
569:78.71932601928711
575:79.03055381774902
574:79.34183502197266
574:79.65309691429138
572:79.96443390846252
566:80.27162289619446
579:80.58297085762024
586:80.89419913291931
574:81.20524597167969
574:81.51676297187805
576:81.82799005508423
575:82.13925504684448
576:82.45052194595337
574:82.761794090271
579:83.06910586357117
576:83.38035798072815
576:83.69164800643921
567:84.00290107727051
566:84.31418085098267
562:84.62547993659973
578:84.93675088882446
579:85.24790000915527
575:85.55926704406738
575:85.870530128479
576:86.177805185318
577:86.48910903930664
576:86.80033898353577
580:87.11162495613098
572:87.42290306091309
586:87.73421597480774
589:88.04546904563904
584:88.35665893554688
572:88.66798996925354
575:88.9792709350586
577:89.28629779815674
576:89.59782886505127
577:89.90904188156128
576:90.22033786773682
578:90.5316390991211
575:90.84272003173828
573:91.15413188934326
572:91.46540403366089
578:91.77665495872498
578:92.08393502235413
575:92.39512705802917
577:92.70647501945496
577:93.01776194572449
579:93.32895684242249
577:93.64030480384827
580:93.95159888267517
579:94.26282286643982
580:94.57410311698914
589:94.88539505004883
582:95.19238495826721
580:95.50394797325134
579:95.81525206565857
579:96.12644982337952
579:96.43771076202393
579:96.74892282485962
578:97.06027293205261
580:97.37152099609375
583:97.68279194831848
587:97.990070104599
569:98.30136394500732
589:98.61269783973694
575:98.92390894889832
579:99.23524188995361
581:99.54644203186035
579:99.85778903961182
581:100.16877293586731
578:100.48023509979248
584:100.79143285751343
579:101.09881401062012
593:101.41014003753662
589:101.72132086753845
576:102.03241300582886
584:102.3438949584961
579:102.65516018867493
581:102.9664249420166
580:103.27745580673218
581:103.58892607688904
579:103.89620685577393
585:104.20755004882812
590:104.51881980895996
579:104.83022284507751
585:105.141037940979
578:105.45257711410522
581:105.76382684707642
580:106.07498598098755
581:106.38641214370728
581:106.69766187667847
582:107.00494289398193
575:107.31622409820557
592:107.62747812271118
573:107.93875575065613
590:108.25006008148193
575:108.56127691268921
580:108.8726110458374
581:109.18379592895508
581:109.49510407447815
582:109.80639004707336
582:110.1155641078949
579:110.42497205734253
586:110.73606896400452
589:111.04745292663574
572:111.35872292518616
586:111.67002487182617
578:111.98131680488586
582:112.29251098632812
582:112.60379600524902
582:112.9111008644104
583:113.22237396240234
583:113.53402280807495
579:113.84469985961914
592:114.15598893165588
584:114.46733093261719
592:114.77847409248352
587:115.08996295928955
584:115.40120387077332
581:115.71251797676086
583:116.0197958946228
582:116.33110094070435
583:116.64237093925476
581:116.9536120891571
578:117.26484799385071
584:117.57594394683838
572:117.88728094100952
596:118.19865083694458
577:118.50992488861084
583:118.81721878051758
582:119.12851405143738
583:119.439768075943
582:119.75115084648132
583:120.06231880187988
583:120.37358808517456
586:120.68488717079163
588:120.99608993530273
585:121.30744409561157
585:121.61868190765381
577:121.92593789100647
577:122.23721385002136
584:122.54849195480347
584:122.85973000526428
583:123.17101383209229
583:123.482262134552
583:123.79360389709473
582:124.10478806495667
580:124.41615295410156
575:124.7233521938324
596:125.0345778465271
588:125.34590697288513
579:125.65700006484985
579:125.96826815605164
585:126.27972197532654
583:126.59100484848022
584:126.90222001075745
583:127.21354794502258
584:127.52480483055115
585:127.83210706710815
580:128.14339208602905
588:128.4546239376068
582:128.7658929824829
571:129.07714700698853
586:129.38843894004822
582:129.69968104362488
582:130.01094102859497
584:130.32220602035522
583:130.6294867992401
585:130.94079113006592
584:131.2519030570984
581:131.56331491470337
589:131.87459087371826
580:132.1858630180359
571:132.49714303016663
588:132.80877804756165
589:133.11965894699097
584:133.43089389801025
584:133.7382128238678
583:134.0494899749756
585:134.36075711250305
583:134.6720278263092
585:134.98331499099731
585:135.29447197914124
587:135.6058828830719
580:135.91706490516663
595:136.22838401794434
586:136.53567385673523
587:136.84694981575012
586:137.15817093849182
585:137.46948409080505
586:137.78072810173035
584:138.0920000076294
586:138.4032688140869
587:138.71451902389526
583:139.02583289146423
576:139.33289694786072
597:139.64421105384827
578:139.9554169178009
591:140.26674580574036
588:140.57797408103943
585:140.88919401168823
587:141.20070886611938
586:141.51176810264587
587:141.82303500175476
584:142.13429498672485
586:142.44178795814514
585:142.75280213356018
596:143.06414604187012
591:143.375385761261
581:143.68668293952942
593:143.99795198440552
592:144.30925297737122
589:144.6204810142517
587:144.93174505233765
588:145.2389578819275
587:145.55022501945496
588:145.8614900112152
587:146.17274594306946
589:146.4840579032898
587:146.79528093338013
598:147.10658311843872
580:147.41784286499023
597:147.7291557788849
582:148.03637290000916
583:148.34792613983154
591:148.65900182724
586:148.97043681144714
589:149.28176093101501
588:149.59300899505615
589:149.9042809009552
587:150.21535801887512
592:150.52664709091187
594:150.838063955307
586:151.14519596099854
598:151.4566888809204
576:151.76788687705994
580:152.07916903495789
584:152.39042210578918
591:152.70171999931335
588:153.0130000114441
589:153.3242130279541
587:153.6356658935547
590:153.94279980659485
589:154.25406789779663
587:154.56532788276672
583:154.8766360282898
589:155.1878879070282
596:155.49911999702454
587:155.81039595603943
583:156.12165999412537
586:156.4329628944397
590:156.74024391174316
589:157.05147290229797
590:157.36279892921448
589:157.67404294013977
591:157.98537492752075
590:158.29659700393677
591:158.60785579681396
583:158.91908311843872
594:159.23039889335632
594:159.54165196418762
588:159.84894800186157
595:160.159903049469
587:160.47149014472961
589:160.78274488449097
587:161.0940179824829
590:161.40533208847046
589:161.71658182144165
591:162.02779912948608
589:162.33910298347473
585:162.64642691612244
594:162.95765089988708
605:163.26894998550415
592:163.58017373085022
580:163.891450881958
595:164.20273995399475
589:164.51406002044678
590:164.82514691352844
589:165.13629174232483
590:165.44778299331665
589:165.75504994392395
591:166.0663480758667
588:166.37761306762695
586:166.68894481658936
588:167.00015902519226
604:167.31137585639954
595:167.6227080821991
597:167.9339189529419
593:168.24523901939392
591:168.55251574516296
590:168.86384797096252
589:169.17508578300476
589:169.49560809135437
590:169.79756903648376
591:170.1088569164276
590:170.4201169013977
589:170.73138689994812
587:171.04269289970398
588:171.3539321422577
604:171.66121292114258
599:171.9725079536438
598:172.28362488746643
593:172.59505200386047
594:172.90631103515625
589:173.21738815307617
591:173.52887082099915
590:173.84010076522827
591:174.15142393112183
590:174.46265983581543
591:174.7699248790741
591:175.08122897148132
590:175.3924479484558
598:175.70373678207397
605:176.01494979858398
605:176.32626485824585
602:176.63760495185852
597:176.94877791404724
